{
	"creeprliving": {
		"category": "hostile",
		"sounds": [
			{
				"name": "essenceplus:mob/creeprboss/creepr_death",
				"stream": false
			}
		]
	},
	"creeprdeath": {
		"category": "hostile",
		"sounds": [
			{
				"name": "essenceplus:mob/creeprboss/creepr_living",
				"stream": false
			}
		]
	},
	"creepinodeath": {
		"category": "hostile",
		"sounds": [
			{
				"name": "essenceplus:mob/creepino/creepinodeath",
				"stream": false
			}
		]
	},
	"creepinohurt": {
		"category": "hostile",
		"sounds": [
			{
				"name": "essenceplus:mob/creepino/creepinohurt",
				"stream": false
			}
		]
	},
	"creepinoscreech": {
		"category": "hostile",
		"sounds": [
			{
				"name": "essenceplus:mob/creepino/creepinoscreech",
				"stream": false
			}
		]
	},
	"alexion.death": {
		"category": "hostile",
		"sounds": [
			{
				"name": "essenceplus:mob/alexion/alexiondeath",
				"stream": false
			}
		]
	},
	"alexion.ambient": {
		"category": "hostile",
		"sounds": [
			{
				"name": "essenceplus:mob/alexion/alexionliving",
				"stream": false
			}
		]
	},
	"alexion.hurt": {
		"category": "master",
		"sounds": [
			{
				"name": "essenceplus:mob/alexion/alexionhurt",
				"stream": false
			}
		]
	},
	"neote.death": {
		"category": "hostile",
		"sounds": [
			{
				"name": "essenceplus:mob/neote/neotedeath",
				"stream": false
			}
		]
	},
	"neote.ambient": {
		"category": "master",
		"sounds": [
			{
				"name": "essenceplus:mob/neote/neoteliving-1",
				"stream": false
			},
			{
				"name": "essenceplus:mob/neote/neoteliving-2",
				"stream": false
			}
		]
	},
	"neote.hurt": {
		"category": "master",
		"sounds": [
			{
				"name": "essenceplus:mob/neote/neotehurt",
				"stream": false
			}
		]
	},
	"craeol.death": {
		"category": "hostile",
		"sounds": [
			{
				"name": "essenceplus:mob/craeol/craeol-death",
				"stream": false
			}
		]
	},
	"craeol.hurt": {
		"category": "hostile",
		"sounds": [
			{
				"name": "essenceplus:mob/craeol/craeol-hurt",
				"stream": false
			}
		]
	},
	"craeol.ambient": {
		"category": "hostile",
		"sounds": [
			{
				"name": "essenceplus:mob/craeol/craeol-living",
				"stream": false
			}
		]
	}
}